Visualizing uncertainty
…
But even if a linear model did fit the data perfectly, the set of coefficients obtained were from a single model and that single model is based on the athletes who participated in events. What would the model look like if it did not include just those athletes but instead includes athletes who were sick and sat the sidelines or those who could have been disqualified for some reason?

Bootstrap Models

rsample::bootstraps() will allow us to take samples from the full data set and run multiple models using various subsets of that full data set. Doing so will provide models that do not include best athletes, do not include worst athletes, include various mixtures, etc. The goal is not to teach bootstrapping methods but to help you understand how models are fit and how they differ, thus illuminating uncertainty in a different way than with geom_smooth(). The code is not provided as this just illustrates a plot of bootstrapped models.

# Bootstrap sampling with apparent sample 
# A tibble: 1,001 × 3
   splits          id            model 
   <list>          <chr>         <list>
 1 <split [31/10]> Bootstrap0001 <lm>  
 2 <split [31/12]> Bootstrap0002 <lm>  
 3 <split [31/12]> Bootstrap0003 <lm>  
 4 <split [31/10]> Bootstrap0004 <lm>  
 5 <split [31/11]> Bootstrap0005 <lm>  
 6 <split [31/10]> Bootstrap0006 <lm>  
 7 <split [31/13]> Bootstrap0007 <lm>  
 8 <split [31/8]>  Bootstrap0008 <lm>  
 9 <split [31/13]> Bootstrap0009 <lm>  
10 <split [31/10]> Bootstrap0010 <lm>  
# ℹ 991 more rows
…
